com\mycompany\usermanagement\UserFrame$4.class
com\mycompany\usermanagement\UserFrame.class
com\mycompany\usermanagement\UserService.class
com\mycompany\usermanagement\UserFrame$10.class
com\mycompany\usermanagement\UserFrame$9.class
com\mycompany\usermanagement\UserManagement.class
com\mycompany\usermanagement\User.class
com\mycompany\usermanagement\UserFrame$5.class
com\mycompany\usermanagement\UserFrame$1.class
com\mycompany\usermanagement\UserFrame$7.class
com\mycompany\usermanagement\UserFrame$2.class
com\mycompany\usermanagement\UserFrame$8.class
com\mycompany\usermanagement\UserFrame$6.class
com\mycompany\usermanagement\UserFrame$3.class
