E:\backup D\CODEING\Softdev\UserManagement\src\main\java\com\mycompany\usermanagement\UserManagement.java
E:\backup D\CODEING\Softdev\UserManagement\src\main\java\com\mycompany\usermanagement\UserService.java
E:\backup D\CODEING\Softdev\UserManagement\src\main\java\com\mycompany\usermanagement\User.java
